{
  "project_info": {
    "project_number": "232561241324",
    "project_id": "tafwak-12c50",
    "storage_bucket": "tafwak-12c50.appspot.com"
  },
  "client": [
    {
      "client_info": {
        "mobilesdk_app_id": "1:232561241324:android:b2eeb2a3f38f04613849c9",
        "android_client_info": {
          "package_name": "app.alorder"
        }
      },
      "oauth_client": [
        {
          "client_id": "232561241324-hf5jgkpna0f9o64q5h9p5g1p2slvs8hc.apps.googleusercontent.com",
          "client_type": 3
        }
      ],
      "api_key": [
        {
          "current_key": "AIzaSyA6pM5kpf0yMj0JzMywhcQisMLs_vyDjnw"
        }
      ],
      "services": {
        "appinvite_service": {
          "other_platform_oauth_client": [
            {
              "client_id": "232561241324-hf5jgkpna0f9o64q5h9p5g1p2slvs8hc.apps.googleusercontent.com",
              "client_type": 3
            }
          ]
        }
      }
    },
    {
      "client_info": {
        "mobilesdk_app_id": "1:232561241324:android:46f819fa71ca88ec3849c9",
        "android_client_info": {
          "package_name": "app.alorder.core"
        }
      },
      "oauth_client": [
        {
          "client_id": "232561241324-hf5jgkpna0f9o64q5h9p5g1p2slvs8hc.apps.googleusercontent.com",
          "client_type": 3
        }
      ],
      "api_key": [
        {
          "current_key": "AIzaSyA6pM5kpf0yMj0JzMywhcQisMLs_vyDjnw"
        }
      ],
      "services": {
        "appinvite_service": {
          "other_platform_oauth_client": [
            {
              "client_id": "232561241324-hf5jgkpna0f9o64q5h9p5g1p2slvs8hc.apps.googleusercontent.com",
              "client_type": 3
            }
          ]
        }
      }
    }
  ],
  "configuration_version": "1"
}